Weather and Corn Yield Regressions
…
## `summarise()` has grouped output by 'countyfp'. You can override using the `.groups` argument.

co_yearly_join <- left_join(yearly_co_temp, corn_yields,by= c('countyfp','year'))

#Add Tmax^2 to data frame 

co_yearly_join$meantmaxsq <- co_yearly_join$meantmax^2

#Fit a panel regression

panelLM <- lm(yield~ meantmax+ meantmaxsq+countyfp, data = co_yearly_join)
tidy(summary(panelLM))

## # A tibble: 101 x 5
##    term        estimate std.error statistic  p.value
##    <chr>          <dbl>     <dbl>     <dbl>    <dbl>
##  1 (Intercept) -2091.     139.      -15.0   1.70e-49
##  2 meantmax      168.       9.90     17.0   2.91e-62
##  3 meantmaxsq     -3.13     0.176   -17.8   3.56e-68
##  4 countyfp147    -4.73     7.04     -0.672 5.02e- 1
##  5 countyfp13     -4.66     7.04     -0.662 5.08e- 1
##  6 countyfp99      3.03     7.04      0.431 6.67e- 1
##  7 countyfp195    -4.95     7.07     -0.700 4.84e- 1
##  8 countyfp67     -7.03     7.04     -0.999 3.18e- 1
##  9 countyfp107    -8.43     7.05     -1.20  2.32e- 1
## 10 countyfp15      3.45     7.04      0.490 6.24e- 1
## # ... with 91 more rows
…
